{
    "branches" : [
        "lab0_M", "lab0_Hlt1TrackMVADecision_TOS", "lab0_Hlt1TwoTrackMVADecision_TOS",

        "lab2_M",

        "lab1_ID", "lab1_ProbNNk", "lab1_ProbNNpi", "lab1_ProbNNmu", "lab1_isMuon", "lab1_hasRich", "lab1_L0HadronDecision_TOS",
        "lab3_ID", "lab3_ProbNNk", "lab3_ProbNNpi", "lab3_ProbNNmu", "lab3_isMuon", "lab3_hasRich", "lab3_L0HadronDecision_TOS",
        "lab4_ID", "lab4_ProbNNk", "lab4_ProbNNpi", "lab4_ProbNNmu", "lab4_isMuon", "lab4_hasRich",
        "lab5_ID", "lab5_ProbNNk", "lab5_ProbNNpi", "lab5_ProbNNmu", "lab5_isMuon", "lab5_hasRich", "lab5_L0HadronDecision_TOS"
    ]
}